…
The word chosen is “procedure”.

``` r
bigram = mtsamples %>%
  unnest_ngrams(output= bigram, input= transcription, n=2) %>%
  separate(bigram, into= c("wordA", "wordB"), sep = " ") %>%
  filter((wordA== "procedure")| (wordB == "procedure"))

bigram %>%
  filter(wordA== "procedure") %>%
  select(wordA, wordB) %>%
  count(wordB, sort = TRUE)
```

    ## # A tibble: 404 × 2
    ##    wordB         n
    ##    <chr>     <int>
    ##  1 the        1269
    ##  2 well       1025
    ##  3 performed   651
    ##  4 in          459
    ##  5 was         424
    ##  6 after       320
    ##  7 and         239
    ##  8 were        144
    ##  9 this        104
    ## 10 1           103
    ## # … with 394 more rows

``` r
bigram %>%
  filter(wordB== "procedure") %>%
  select(wordA, wordB) %>%
  count(wordA, sort = TRUE)
```

    ## # A tibble: 671 × 2
    ##    wordA         n
    ##    <chr>     <int>
    ##  1 the        2833
    ##  2 of          560
    ##  3 operative   252
    ##  4 for         195
    ##  5 this        164
    ##  6 same         72
    ##  7 none         69
    ##  8 surgical     58
    ##  9 similar      57
    ## 10 entire       49
    ## # … with 661 more rows
…
